ACTT validation study
…
🎨 Set Theme and Color Palette

pal <- met.brewer("Archambault", 11)[c(1,4,6,8)]

theme_set(theme_bw() + 
            theme_bw(base_size = 14, 
                     base_family = "Helvetica") + 
            theme(panel.border = element_rect(linewidth = 1.5)))

📁 Load and View Data

df <- readr::read_csv(file = 'data/acttrust_validation_full.csv')
df

# A tibble: 334 × 12
   Conditions    ID   Sex   Age   BMI    FC   ERG  METs `GT3X+ (hip)`
   <chr>      <dbl> <dbl> <dbl> <dbl> <dbl> <dbl> <dbl>         <dbl>
 1 Rest           1     2    21  21.8  75.7   4.4   1.2           0  
 2 Rest           2     2    28  25.3  53.7   3.5   1             0  
 3 Rest           3     2    25  24.1  58.7   4.6   1.3           0  
 4 Rest           4     2    26  24.5  72.8   4.3   1.2           0  
 5 Rest           5     1    25  25.3  74.7   4.4   1.2           1.3
 6 Rest           6     1    21  23.1  81.7   5.1   1.4           8.3
 7 Rest           7     2    25  24.1  77.3   4.7   1.3           0  
 8 Rest           8     2    31  28.7  66.7   4.7   1.4           0  
 9 Rest           9     2    25  25.3  64.5   5.2   1.5           3.7
10 Rest          10     2    21  21.4  68     5.1   1.5           0  
# ℹ 324 more rows
# ℹ 3 more variables: `GT3X+ (wrist)` <dbl>, `ACTT (hip)` <dbl>,
#   `ACTT (wrist)` <dbl>
…
aov_model <-df %>% 
  dplyr::filter(Conditions != 'Sit-Stands') %>% 
  tidyr::pivot_longer(cols = contains(c('GT', 'ACT')), names_to = 'act', values_to = 'act_value') %>% 
  dplyr::mutate(act = relevel(as.factor(act), ref = 'GT3X+ (hip)')) %>% 
  dplyr::mutate(Conditions = relevel(as.factor(Conditions), ref = 'Rest')) %>% 
  lm(formula = sqrt(act_value) ~ Conditions:act, data = .) %>% 
  aov()

tukey_res <- TukeyHSD(aov_model)
tidy_tukey <- tidy(tukey_res)

tidy_tukey

# A tibble: 190 × 7
   term           contrast    null.value estimate conf.low conf.high adj.p.value
   <chr>          <chr>            <dbl>    <dbl>    <dbl>     <dbl>       <dbl>
 1 Conditions:act 3 km.h-1:G…          0    43.9     33.8       54.0        0   
 2 Conditions:act 5 km.h-1:G…          0    62.4     52.3       72.5        0   
 3 Conditions:act 7 km.h-1:G…          0    86.3     76.2       96.3        0   
 4 Conditions:act 9 km.h-1:G…          0    94.0     83.9      104.         0   
 5 Conditions:act Rest:ACTT …          0     2.07    -7.96      12.1        1.00
 6 Conditions:act 3 km.h-1:A…          0    86.9     76.9       96.9        0   
 7 Conditions:act 5 km.h-1:A…          0   121.     111.       131.         0   
 8 Conditions:act 7 km.h-1:A…          0   194.     184.       204.         0   
 9 Conditions:act 9 km.h-1:A…          0   224.     214.       234.         0   
10 Conditions:act Rest:ACTT …          0     3.19    -6.83      13.2        1.00
# ℹ 180 more rows
…
